date,year,month,day,hour,min
1,2018,8,1,9,0
2,2018,8,2,5,59
3,2018,8,7,8,42
4,2018,8,8,8,46
5,2018,8,9,8,41
6,2018,8,14,9,0
7,2018,8,15,8,46
8,2018,8,16,8,46
9,2018,8,21,8,30
10,2018,8,22,9,0
11,2018,8,23,9,0
12,2018,8,28,9,0
13,2018,8,29,9,0
14,2018,8,30,9,0
